Element name,Type,L[m],S[m],X[m],Y[m],Z[m],Section,Subsystem,Managed in CS,Device Server name,Device Server instance,Device class,Full TANGO device name,Device Alias,Triggered by TTL,Custom GUI,Aggregate GUI,Description,Comment
BL-05FEID-VAC-VGCC01,PUMPING STAGE 1,,,,,4.835,BL-05FEID,VAC,Y,Tpg300,BL-05FEID-VAC-VGC01,Tpg300,BL-05FEID/VAC/BL-05FEID-VAC-VGCU01,,N,,,,? Not explicitly mentioned
BL-05FEID-VAC-VGC01,,,,,,4.835,BL-05FEID,VAC,N,,,,BL-05FEID/VAC/BL-05FEID-VAC-VGC01,,N,,,,IM_FE.01 ?
BL-05FEID-VAC-IPCU01,,,,,,4.835,BL-05FEID,VAC,Y,GammaSPCe,BL-05FEID-VAC-IP01,GammaSPCe,BL-05FEID/VAC/BL-05FEID-VAC-IPCU01,,N,,,,PSSIP300_FE.01
BL-05FEID-VAC-IP01,,,,,,4.835,BL-05FEID,VAC,N,,,,BL-05FEID/VAC/BL-05FEID-VAC-IP01,,N,,,,SIP300_FE.01
,,,,,,,,,,,,,,,,,,,
BL-05FEID-OPT-APT01,APERTURE,,,,,5.000,BL-05FEID,OPT,Y,TBD,TBD,TBD,BL-05FEID/OPT/BL-05FEID-OPT-APT01,,N,,,,X-ray aperture 
BL-05FEID-WAT-C01?,WATER COOLING,,,,,5.000,BL-05FEID,WAT,Y,,,,BL-05FEID/WAT/BL-05FEID-WAT-C01?,,N,,,,? Not explicitly mentioned
BL-05FEID-WAT-FSW01,WATER COOLING,,,,,5.000,BL-05FEID,WAT,Y,WaterFlowController,BL-05FEID-WAT-FSW01,WaterFlowController,BL-05FEID/WAT/BL-05FEID-WAT-FSW01,,N,,,,WTR_FE.01
BL-05FEID-DIA-TCO01,,,,,,5.000,BL-05FEID,DIA,Y,Eurotherm,BL-05FEID-DIA-TCO01,Eurotherm,BL-05FEID/DIA/BL-05FEID-DIA-TCO01,,N,,,,TC_FE.01
,,,,,,,,,,,,,,,,,,,
BL-05FEID-CTL-SHP01,SHOPPER1,,,,,6.400,BL-05FEID,CTL,Y,TBD,BL-05FEID-CTL-SHP01,TBD,BL-05FEID/CTL/BL-05FEID-SHP01,,N,,,,SP_FE.01
BL-05FEID-DIA-TCO02,THERMOCOUPLE,,,,,6.400,BL-05FEID,DIA,Y,Eurotherm,BL-05FEID-DIA-TCO02,Eurotherm,BL-05FEID/DIA/BL-05FEID-DIA-TCO02,,N,,,,TC_FE.02
BL-05FEID-VAC-VGP01,,,,,,6.400,BL-05FEID,VAC,Y,Tpg300,BL-05FEID-VAC-VGP01,Tpg300,BL-05FEID/VAC/BL-05FEID-VAC-VGP01,,N,,,,PI_FE.01
BL-05FEID-WAT-C02?,WATER COOLING,,,,,6.400,BL-05FEID,WAT,Y,,,,BL-05FEID/WAT/BL-05FEID-WAT-C02?,,N,,,,? Not explicitly mentioned
BL-05FEID-WAT-FSW02,WATER COOLING,,,,,6.400,BL-05FEID,WAT,Y,WaterFlowController,BL-05FEID-WAT-FSW02,WaterFlowController,BL-05FEID/WAT/BL-05FEID-WAT-FSW02,,N,,,,WTR_FE.02
BL-05FEID-AIR-PSW01,AIR,,,,,6.400,BL-05FEID,AIR,Y,,,,BL-05FEID/AIR/BL-05FEID-AIR-PSW01,,N,,,,AIR_FE.01
BL-05FEID-VAC-IPCU02,,,,,,6.400,BL-05FEID,VAC,Y,GammaSPCe,BL-05FEID-VAC-IP02,GammaSPCe,BL-05FEID/VAC/BL-05FEID-VAC-IPCU02,,N,,,,PSSIP300_FE.02
BL-05FEID-VAC-IP02,,,,,,6.400,BL-05FEID,VAC,N,,,,BL-05FEID/VAC/BL-05FEID-VAC-IP02,,N,,,,SIP300_FE.02
4 limit switches via PLC,,,,,,6.400,BL-05FEID,,,,,,,,,,,,
,,,,,,,,,,,,,,,,,,,
BL-05FEID-CTL-SHP02,SHOPPER2,,,,,6.900,BL-05FEID,CTL,Y,TBD,BL-05FEID-CTL-SHP02,TBD,BL-05FEID/CTL/BL-05FEID-SHP02,,,,,,SP_FE.02
BL-05FEID-DIA-TCO03,THERMOCOUPLE,,,,,6.900,BL-05FEID,DIA,Y,Eurotherm,BL-05FEID-DIA-TCO03,Eurotherm,BL-05FEID/VAC/BL-05FEID-DIA-TCO03,,,,,,TC_FE.03
BL-05FEID-VAC-VGCU02,,,,,,6.900,BL-05FEID,VAC,Y,,,,BL-05FEID/VAC/BL-05FEID-VAC-VGCU02,,,,,,? Not explicitly mentioned
BL-05FEID-VAC-VGC02,,,,,,6.900,BL-05FEID,VAC,Y,Tpg300,BL-05FEID-VAC-VGC02,Tpg300,BL-05FEID/VAC/BL-05FEID-VAC-VGC02,,,,,,IM_FE.02
BL-05FEID-WAT-C03?,WATER COOLING,,,,,6.900,BL-05FEID,WAT,Y,,,,BL-05FEID/WAT/BL-05FEID-WAT-C03?,,,,,,? Not explicitly mentioned
BL-05FEID-WAT-FSW03,WATER COOLING,,,,,6.900,BL-05FEID,WAT,Y,WaterFlowController,BL-05FEID-WAT-FSW03,WaterFlowController,BL-05FEID/WAT/BL-05FEID-WAT-FSW03,,,,,,WTR_FE.03
BL-05FEID-AIR-PSW01,AIR,,,,,6.900,BL-05FEID,AIR,Y,,,,BL-05FEID/AIR/BL-05FEID-AIR-PSW01,,,,,,AIR_FE.01
BL-05FEID-VAC-IPCU03,,,,,,6.900,BL-05FEID,VAC,Y,GammaSPCe,BL-05FEID-VAC-IP03,GammaSPCe,BL-05FEID/VAC/BL-05FEID-VAC-IPCU03,,N,,,,PSSIP300_FE.03
BL-05FEID-VAC-IP03,,,,,,6.900,BL-05FEID,VAC,N,,,,BL-05FEID/VAC/BL-05FEID-VAC-IP03,,N,,,,SIP300_FE.03
4 limit switches via PLC,,,,,,,,,,,,,,,,,,,
,,,,,,,,,,,,,,,,,,,
BL-05FEID-VAC-VGFA01,PNEUMATIC PANEL,,,,,??,BL-05FEID,VAC,,,,,BL-05FEID/VAC/BL-05FEID-VAC-VGFA01,,,,,,FVLV_FE.01
BL-05FEID-VAC-VGCUxx??,,,,,,??,BL-05FEID,VAC,,,,,BL-05FEID/VAC/BL-05FEID-VAC-VGCUxx,,,,,,? Not explicitly mentioned
,,,,,,,,,,,,,,,,,,,
,MASK,,,,,,,,,,,,,,,,,,
BL-05FEID-VAC-VGCU03,,,,,,8.950,BL-05FEID,VAC,,,,,BL-05FEID/VAC/BL-05FEID-VAC-VGCU03,,,,,,? Not explicitly mentioned
BL-05FEID-VAC-VGC03,,,,,,8.950,BL-05FEID,VAC,Y,Tpg300,BL-05FEID-VAC-VGC03,Tpg300,BL-05FEID/VAC/BL-05FEID-VAC-VGC03,,,,,,IM_FE.03
BL-05FEID-VAC-VGP02,,,,,,8.950,BL-05FEID,VAC,,,,,BL-05FEID/VAC/BL-05FEID-VAC-VGP02,,,,,,PI_FE.02
BL-05FEID-VAC-IPCU04,,,,,,8.950,BL-05FEID,VAC,Y,GammaSPCe,BL-05FEID-VAC-IP04,GammaSPCe,BL-05FEID/VAC/BL-05FEID-VAC-IPCU04,,N,,,,PSSIP300_FE04
BL-05FEID-VAC-IP04,,,,,,8.950,BL-05FEID,VAC,N,,,,BL-05FEID/VAC/BL-05FEID-VAC-IP04,,N,,,,SIP300_FE04
BL-05FEID-DIA-TCO04,,,,,,9.950,BL-05FEID,DIA,Y,Eurotherm,BL-05FEID-DIA-TCO04,Eurotherm,BL-05FEID/VAC/BL-05FEID-DIA-TCO04,,,,,,TC_FE.04
BL-05FEID-WAT-C04?,WATER COOLING,,,,,8.950,BL-05FEID,WAT,,,,,BL-05FEID/WAT/BL-05FEID-WAT-C04?,,,,,,? Not explicitly mentioned
BL-05FEID-WAT-FSW04?,WATER COOLING,,,,,8.950,BL-05FEID,WAT,Y,WaterFlowController,BL-05FEID-WAT-FSW04,WaterFlowController,BL-05FEID/WAT/BL-05FEID-WAT-FSW04?,,,,,,WTR_FE.04
BL-05FEID-CTL-IPAPD01?,,,,,,8.950,BL-05FEID,CTL,,,,,???,,,,,,
BL-05FEID-CTL-STPMT01,,,,,,8.950,BL-05FEID,CTL,,,,,MOTOR/BL-05FEID-CTL-IPAP01/1,,,,,,
BL-05FEID-CTL-IPAPD02?,,,,,,8.950,BL-05FEID,CTL,,,,,???,,,,,,
BL-05FEID-CTL-STPMT02,,,,,,8.950,BL-05FEID,CTL,,,,,MOTOR/BL-05FEID-CTL-IPAP01/2,,,,,,
,,,,,,,,,,,,,,,,,,,
,,,,,,,,,,,,,,,,,,,
BL-05FEID-VAC-VGCC04,PUMPING STAGE 2,,,,,12.000,BL-05FEID,VAC,Y,,,,BL-05FEID/VAC/BL-05FEID-VAC-VGCU04,,N,,,,? Not explicitly mentioned
BL-05FEID-VAC-VGC04,,,,,,12.000,BL-05FEID,VAC,Y,Tpg300,BL-05FEID-VAC-VGC04,Tpg300,BL-05FEID/VAC/BL-05FEID-VAC-VGC04,,N,,,,IM_FE.04 ?
BL-05FEID-VAC-IPCU05,,,,,,12.000,BL-05FEID,VAC,Y,GammaSPCe,BL-05FEID-VAC-IP05,GammaSPCe,BL-05FEID/VAC/BL-05FEID-VAC-IPCU05,,N,,,,? Not explicitly mentioned
BL-05FEID-VAC-IP05,,,,,,12.000,BL-05FEID,VAC,N,,,,BL-05FEID/VAC/BL-05FEID-VAC-IP05,,N,,,,SIP150_FE.01
,,,,,,,,,,,,,,,,,,,
BL-05ID-VAC-VGMB01,PNEUMATIC PANEL,,,,,12.150,BL-05ID,VAC,Y,GateValve,BL-05ID-VAC-VGMB01,GateValve,BL-05ID/VAC/BL-05ID-VAC-VGMB01,,,,,,VLV_BL.01
BL-05ID-VAC-VGCUxx??,,,,,,12.150,BL-05ID,VAC,,,,,BL-05ID/VAC/BL-05ID-VAC-VGCUxx,,,,,,? Not explicitly mentioned
BL-05ID-AIR-PSW01,AIR,,,,,12.150,BL-05ID,AIR,Y,,,,BL-05ID/AIR/BL-05ID-AIR-PSW01,,,,,,AIR_BL.01
,,,,,,,,,,,,,,,,,,,
,,,,,,,,,,,,,,,,,,,
#SLIT 1,,,,,,,,,,,,,,,,,,,
BL-05ID-OPT-SLT1,,,,,,15.285,BL-05ID,OPT,N,Sardana,,Controller,BL-05ID/OPT/BL-05ID-OPT-SLT1,BL-05ID-OPT-SLT1,,Slit,,,
BL-05ID-DIA-TCO01,,,,,,15.285,BL-05ID,DIA,Y,Eurotherm,BL-05ID-DIA-TCO01,Eurotherm,BL-05ID/DIA/BL-05ID-DIA-TCO01,,,,,,TC_BL.01
BL-05ID-DIA-TCO02,,,,,,15.285,BL-05ID,DIA,Y,Eurotherm,BL-05ID-DIA-TCO02,Eurotherm,BL-05ID/DIA/BL-05ID-DIA-TCO02,,,,,,TC_BL.02
BL-05ID-DIA-TCO03,,,,,,15.285,BL-05ID,DIA,Y,Eurotherm,BL-05ID-DIA-TCO03,Eurotherm,BL-05ID/DIA/BL-05ID-DIA-TCO03,,,,,,TC_BL.03
BL-05ID-DIA-TCO04,,,,,,15.285,BL-05ID,DIA,Y,Eurotherm,BL-05ID-DIA-TCO04,Eurotherm,BL-05ID/DIA/BL-05ID-DIA-TCO04,,,,,,TC_BL.04
BL-05ID-WAT-C01?,WATER COOLING,,,,,15.285,BL-05ID,WAT,,,,,BL-05ID/WAT/BL-05ID-WAT-C01?,,,,,,? Not explicitly mentioned
BL-05ID-WAT-FSW01,WATER COOLING,,,,,15.285,BL-05ID,WAT,Y,WaterFlowController,BL-05ID-WAT-FSW01,WaterFlowController,BL-05ID/WAT/BL-05ID-WAT-FSW01,,,,,,WTR_BL.01
BL-05ID-VAC-VGC01,,,,,,15.285,BL-05ID,VAC,Y,Tpg300,BL-05ID-VAC-VGC01,Tpg300,BL-05ID/VAC/BL-05ID-VAC-VGC01,,,,,,IM_BL.01
BL-05ID-VAC-IPCU01,,,,,,15.285,BL-05ID,VAC,Y,GammaSPCe,BL-05ID-VAC-IP01,GammaSPCe,BL-05ID/VAC/BL-05ID-VAC-IPCU01,,N,,,,PSSIP300_BL.01
BL-05ID-VAC-IP01,,,,,,15.285,BL-05ID,VAC,N,,,,BL-05ID/VAC/BL-05ID-VAC-IP01,,N,,,,SIP300_BL.01
BL-05ID-CTL-IPAP01,,,,,,15.285,BL-05ID,CTL,Y,Sardana,BL-05ID-OPT-SLT1,Controller,CONTROLLER/ICEPAPCONTROLLER/BL-05ID-CTL-IPAP01,BL-05ID-CTL-IPAP01,N,,,,
BL-05ID-CTL-IPAPD01,,,,,,15.285,BL-05ID,CTL,N,,,,,,,,,,
BL-05ID-CTL-STPMT01,,,,,,15.285,BL-05ID,CTL,Y,Sardana,BL-05ID-OPT-SLT1,Motor,MOTOR/BL-05ID-CTL-IPAP01/1,BL-05ID-CTL-STPMT01,,,,,
BL-05ID-CTL-IPAPD02,,,,,,15.285,BL-05ID,CTL,N,,,,,,,,,,
BL-05ID-CTL-STPMT02,,,,,,15.285,BL-05ID,CTL,Y,Sardana,BL-05ID-OPT-SLT1,Motor,MOTOR/BL-05ID-CTL-IPAP01/2,BL-05ID-CTL-STPMT02,,,,,
BL-05ID-CTL-IPAPD03,,,,,,15.285,BL-05ID,CTL,N,,,,,,,,,,
BL-05ID-CTL-STPMT03,,,,,,15.285,BL-05ID,CTL,Y,Sardana,BL-05ID-OPT-SLT1,Motor,MOTOR/BL-05ID-CTL-IPAP01/3,BL-05ID-CTL-STPMT03,,,,,
BL-05ID-CTL-IPAPD04,,,,,,15.285,BL-05ID,CTL,N,,,,,,,,,,
BL-05ID-CTL-STPMT04,,,,,,15.285,BL-05ID,CTL,Y,Sardana,BL-05ID-OPT-SLT1,Motor,MOTOR/BL-05ID-CTL-IPAP01/4,BL-05ID-CTL-STPMT04,,,,,
BL-05ID-OPT-SLTX1,,,,,,15.285,BL-05ID,OPT,Y,Sardana,BL-05ID-OPT-SLT1,Controller,CONTROLLER/SLIT/BL-05ID-OPT-SLTX1,BL-05ID-OPT-SLTX1,,Slit,,,
BL-05ID-OPT-GAPX1,,,,,,15.285,BL-05ID,OPT,Y,Sardana,BL-05ID-OPT-SLT1,PseudoMotor,PM/BL-05ID-OPT-SLTX1/1,BL-05ID-OPT-GAPX1,,,,,
BL-05ID-OPT-OFFX1,,,,,,15.285,BL-05ID,OPT,Y,Sardana,BL-05ID-OPT-SLT1,PseudoMotor,PM/BL-05ID-OPT-SLTX1/2,BL-05ID-OPT-OFFX1,,,,,
BL-05ID-OPT-SLTY1,,,,,,15.285,BL-05ID,OPT,Y,Sardana,BL-05ID-OPT-SLT1,Controller,CONTROLLER/SLIT/BL-05ID-OPT-SLTY1,BL-05ID-OPT-SLTY1,,Slit,,,
BL-05ID-OPT-GAPY1,,,,,,15.285,BL-05ID,OPT,Y,Sardana,BL-05ID-OPT-SLT1,PseudoMotor,PM/BL-05ID-OPT-SLTY1/1,BL-05ID-OPT-GAPY1,,,,,
BL-05ID-OPT-OFFY1,,,,,,15.285,BL-05ID,OPT,Y,Sardana,BL-05ID-OPT-SLT1,PseudoMotor,PM/BL-05ID-OPT-SLTY1/2,BL-05ID-OPT-OFFY1,,,,,
,,,,,,,,,,,,,,,,,,,
,,,,,,,,,,,,,,,,,,,
BL-05ID-DIA-TCO05,MIRROR 1,,,,,16.000,BL-05ID,DIA,Y,Eurotherm,BL-05ID-DIA-TCO05,Eurotherm,BL-05ID/DIA/BL-05ID-DIA-TCO05,,,,,,TC_BL.05
BL-05ID-WAT-C02?,WATER COOLING,,,,,16.000,BL-05ID,WAT,,,,,BL-05ID/WAT/BL-05ID-WAT-C02?,,,,,,? Not explicitly mentioned
BL-05ID-WAT-FSW02,WATER COOLING,,,,,16.000,BL-05ID,WAT,Y,WaterFlowController,BL-05ID-WAT-FSW02,WaterFlowController,BL-05ID/WAT/BL-05ID-WAT-FSW02,,,,,,WTR_BL.02
BL-05ID-VAC-VGC02,,,,,,16.000,BL-05ID,VAC,Y,Tpg300,BL-05ID-VAC-VGC02,Tpg300,BL-05ID/VAC/BL-05ID-VAC-VGC02,,,,,,IM_BL.02
BL-05ID-VAC-VGP01,,,,,,16.000,BL-05ID,VAC,,,,,BL-05ID/VAC/BL-05ID-VAC-VGP01,,,,,,PI_BL.01
BL-05ID-VAC-IPCU02,,,,,,16.000,BL-05ID,VAC,Y,GammaSPCe,BL-05ID-VAC-IP02,GammaSPCe,BL-05ID/VAC/BL-05ID-VAC-IPCU02,,N,,,,PSSIP300_BL.02
BL-05ID-VAC-IP02,,,,,,16.000,BL-05ID,VAC,N,,,,BL-05ID/VAC/BL-05ID-VAC-IP02,,N,,,,SIP300_BL.02
BL-05ID-CTL-IPAPD05?,,,,,,16.000,BL-05ID,CTL,,,,,???,,,,,,
BL-05ID-CTL-STPMT05,,,,,,16.000,BL-05ID,CTL,,,,,MOTOR/BL-05ID-CTL-IPAP01/5,,,,,,
BL-05ID-CTL-IPAPD06?,,,,,,16.000,BL-05ID,CTL,,,,,???,,,,,,
BL-05ID-CTL-STPMT06,,,,,,16.000,BL-05ID,CTL,,,,,MOTOR/BL-05ID-CTL-IPAP01/6,,,,,,
BL-05ID-CTL-IPAPD07?,,,,,,16.000,BL-05ID,CTL,,,,,???,,,,,,
BL-05ID-CTL-STPMT07,,,,,,16.000,BL-05ID,CTL,,,,,MOTOR/BL-05ID-CTL-IPAP01/7,,,,,,
BL-05ID-CTL-IPAPD08?,,,,,,16.000,BL-05ID,CTL,,,,,???,,,,,,
BL-05ID-CTL-STPMT08,,,,,,16.000,BL-05ID,CTL,,,,,MOTOR/BL-05ID-CTL-IPAP01/8,,,,,,
BL-05ID-CTL-IPAPD09?,,,,,,16.000,BL-05ID,CTL,,,,,???,,,,,,
BL-05ID-CTL-STPMT09,,,,,,16.000,BL-05ID,CTL,,,,,MOTOR/BL-05ID-CTL-IPAP01/9,,,,,,
Pseudomotors ???,,,,,,,,,,,,,,,,,,,
BL-05ID-OPT-MIR01,,,,,,16.000,BL-05ID,OPT,Y,TBD,BL-05ID-OPT-MIR01,TBD,CONTROLLER/MIRROR/BL-05ID-OPT-MIR01,,,,,,
,,,,,,,,,,,,,,,,,,,
,,,,,,,,,,,,,,,,,,,
BL-05ID-AIR-PSW02,DIAGNOSTIC 1,,,,,16.525,BL-05ID,DIA,,,,,BL-05ID/DIA/BL-05ID-AIR-PSW02,,,,,,AIR_BL.02
BL-05ID-WAT-C03?,WATER COOLING,,,,,16.525,BL-05ID,WAT,,,,,BL-05ID/WAT/BL-05ID-WAT-C03?,,,,,,? Not explicitly mentioned
BL-05ID-WAT-FSW03?,WATER COOLING,,,,,16.525,BL-05ID,WAT,Y,WaterFlowController,BL-05ID-WAT-FSW03,WaterFlowController,BL-05ID/WAT/BL-05ID-WAT-FSW03?,,,,,,WTR_BL.03
BL-05ID-DIA-SCRN01,,,,,,16.525,BL-05ID,DIA,Y,TBD,BL-05ID-DIA-SCRN01,TBD,BL-05ID/DIA/BL-05ID-DIA-SCRN01,,,,,,
BL-05ID-DIA-CAM01,,,,,,16.525,BL-05ID,DIA,Y,Lima,BL-05ID-DIA-CAM01,Basler,BL-05ID/DIA/BL-05ID-DIA-CAM01,,,,,,
BL-05ID-DIA-CCAM01,,,,,,16.525,BL-05ID,DIA,Y,Lima,BL-05ID-DIA-CCAM01,LimaCCD,BL-05ID/DIA/BL-05ID-DIA-CCAM01,,,,,,
,,,,,,,,,,,,,,,,,,,
,,,,,,,,,,,,,,,,,,,
BL-05ID-VAC-VGMB02,PNEUMATIC PANEL,,,,,16.680,BL-05ID,VAC,Y,GateValve,BL-05ID-VAC-VGMB02,GateValve,BL-05ID/VAC/BL-05ID-VAC-VGMB02,,,,,,VLV_BL.02
BL-05ID-VAC-VGCUxx??,,,,,,16.680,BL-05ID,VAC,,,,,BL-05ID/VAC/BL-05ID-VAC-VGCUxx,,,,,,? Not explicitly mentioned
BL-05ID-AIR-PSW02,AIR,,,,,16.680,BL-05ID,AIR,Y,,,,BL-05ID/AIR/BL-05ID-AIR-PSW02,,,,,,AIR_BL.02
,,,,,,,,,,,,,,,,,,,
,,,,,,,,,,,,,,,,,,,
#SLIT 2,,,,,,,,,,,,,,,,,,,
BL-05ID-OPT-SLT2,,,,,,17.705,BL-05ID,OPT,N,Sardana,,Controller,BL-05ID/OPT/BL-05ID-OPT-SLT2,BL-05ID-OPT-SLT2,,Slit,,,
BL-05ID-DIA-TCO06,,,,,,17.705,BL-05ID,DIA,Y,Eurotherm,BL-05ID-DIA-TCO06,Eurotherm,BL-05ID/DIA/BL-05ID-DIA-TCO06,,,,,,TC_BL.06
BL-05ID-DIA-TCO07,,,,,,17.705,BL-05ID,DIA,Y,Eurotherm,BL-05ID-DIA-TCO07,Eurotherm,BL-05ID/DIA/BL-05ID-DIA-TCO07,,,,,,TC_BL.07
BL-05ID-DIA-TCO08,,,,,,17.705,BL-05ID,DIA,Y,Eurotherm,BL-05ID-DIA-TCO08,Eurotherm,BL-05ID/DIA/BL-05ID-DIA-TCO08,,,,,,TC_BL.08
BL-05ID-DIA-TCO09,,,,,,17.705,BL-05ID,DIA,Y,Eurotherm,BL-05ID-DIA-TCO09,Eurotherm,BL-05ID/DIA/BL-05ID-DIA-TCO09,,,,,,TC_BL.09
BL-05ID-VAC-VGFR01,,,,,,17.705,BL-05ID,VAC,Y,TBD,BL-05ID-VAC-VGFR01,TBD,BL-05ID/VAC/BL-05ID-VAC-VGFR01,,,,,,FR_BL.01
BL-05ID-VAC-IPCU03,,,,,,17.705,BL-05ID,VAC,Y,GammaSPCe,BL-05ID-VAC-IP03,GammaSPCe,BL-05ID/VAC/BL-05ID-VAC-IPCU03,,N,,,,PSSIP300_BL.03
BL-05ID-VAC-IP03,,,,,,17.705,BL-05ID,VAC,N,,,,BL-05ID/VAC/BL-05ID-VAC-IP03,,N,,,,SIP300_BL.03
BL-05ID-CTL-IPAP02,,,,,,17.705,BL-05ID,CTL,Y,Sardana,BL-05ID-OPT-SLT2,Controller,CONTROLLER/ICEPAPCONTROLLER/BL-05ID-CTL-IPAP02,BL-05ID-CTL-IPAP02,,,,,
BL-05ID-CTL-IPAPD21,,,,,,17.705,BL-05ID,CTL,N,,,,,,,,,,
BL-05ID-CTL-STPMT21,,,,,,17.705,BL-05ID,CTL,Y,Sardana,BL-05ID-OPT-SLT2,Motor,MOTOR/BL-05ID-CTL-IPAP02/1,BL-05ID-CTL-STPMT21,,,,,
BL-05ID-CTL-IPAPD22,,,,,,17.705,BL-05ID,CTL,N,,,,,,,,,,
BL-05ID-CTL-STPMT22,,,,,,17.705,BL-05ID,CTL,Y,Sardana,BL-05ID-OPT-SLT2,Motor,MOTOR/BL-05ID-CTL-IPAP02/2,BL-05ID-CTL-STPMT22,,,,,
BL-05ID-CTL-IPAPD23,,,,,,17.705,BL-05ID,CTL,N,,,,,,,,,,
BL-05ID-CTL-STPMT23,,,,,,17.705,BL-05ID,CTL,Y,Sardana,BL-05ID-OPT-SLT2,Motor,MOTOR/BL-05ID-CTL-IPAP02/3,BL-05ID-CTL-STPMT23,,,,,
BL-05ID-CTL-IPAPD24,,,,,,17.705,BL-05ID,CTL,N,,,,,,,,,,
BL-05ID-CTL-STPMT24,,,,,,17.705,BL-05ID,CTL,Y,Sardana,BL-05ID-OPT-SLT2,Motor,MOTOR/BL-05ID-CTL-IPAP02/4,BL-05ID-CTL-STPMT24,,,,,
BL-05ID-OPT-SLTX2,,,,,,17.705,BL-05ID,OPT,Y,Sardana,BL-05ID-OPT-SLT2,Controller,CONTROLLER/SLIT/BL-05ID-OPT-SLTX2,BL-05ID-OPT-SLTX2,,Slit,,,
BL-05ID-OPT-GAPX2,,,,,,17.705,BL-05ID,OPT,Y,Sardana,BL-05ID-OPT-SLT2,PseudoMotor,PM/BL-05ID-OPT-SLTX2/1,BL-05ID-OPT-GAPX2,,,,,
BL-05ID-OPT-OFFX2,,,,,,17.705,BL-05ID,OPT,Y,Sardana,BL-05ID-OPT-SLT2,PseudoMotor,PM/BL-05ID-OPT-SLTX2/2,BL-05ID-OPT-OFFX2,,,,,
BL-05ID-OPT-SLTY2,,,,,,17.705,BL-05ID,OPT,Y,Sardana,BL-05ID-OPT-SLT2,Controller,CONTROLLER/SLIT/BL-05ID-OPT-SLTY2,BL-05ID-OPT-SLTY2,,Slit,,,
BL-05ID-OPT-GAPY2,,,,,,17.705,BL-05ID,OPT,Y,Sardana,BL-05ID-OPT-SLT2,PseudoMotor,PM/BL-05ID-OPT-SLTY2/1,BL-05ID-OPT-GAPY2,,,,,
BL-05ID-OPT-OFFY2,,,,,,17.705,BL-05ID,OPT,Y,Sardana,BL-05ID-OPT-SLT2,PseudoMotor,PM/BL-05ID-OPT-SLTY2/2,BL-05ID-OPT-OFFY2,,,,,
,,,,,,,,,,,,,,,,,,,
,,,,,,,,,,,,,,,,,,,
BL-05ID-VAC-VGC03,MONOCHROMATOR,,,,,18.700,BL-05ID,VAC,Y,Tpg300,BL-05ID-VAC-VGC03,Tpg300,BL-05ID/VAC/BL-05ID-VAC-VGC03,,,,,,IM_BL.03
BL-05ID-VAC-IPCU04,,,,,,18.700,BL-05ID,VAC,Y,GammaSPCe,BL-05ID-VAC-IP04,GammaSPCe,BL-05ID/VAC/BL-05ID-VAC-IPCU04,,N,,,,PSSIP600_BL.01
BL-05ID-VAC-IP04,,,,,,18.700,BL-05ID,VAC,N,,,,BL-05ID/VAC/BL-05ID-VAC-IP04,,N,,,,SIP600_BL.01
BL-05ID-DIA-TCO10,,,,,,18.700,BL-05ID,DIA,Y,Eurotherm,BL-05ID-DIA-TCO10,Eurotherm,BL-05ID/DIA/BL-05ID-DIA-TCO10,,,,,,TC_BL.10
BL-05ID-WAT-C04?,WATER COOLING,,,,,18.700,BL-05ID,WAT,,,,,BL-05ID/WAT/BL-05ID-WAT-C04?,,,,,,? Not explicitly mentioned
BL-05ID-WAT-FSW04?,WATER COOLING,,,,,18.700,BL-05ID,WAT,Y,WaterFlowController,BL-05ID-WAT-FSW04,WaterFlowController,BL-05ID/WAT/BL-05ID-WAT-FSW04?,,,,,,WTR_BL.04
BL-05ID-CTL-IPAPD14?,,,,,,18.700,BL-05ID,CTL,,,,,???,,,,,,
BL-05ID-CTL-STPMT14,,,,,,18.700,BL-05ID,CTL,,,,,MOTOR/BL-05ID-CTL-IPAP01/14,,,,,,
BL-05ID-CTL-IPAPD15?,,,,,,18.700,BL-05ID,CTL,,,,,???,,,,,,
BL-05ID-CTL-STPMT15,,,,,,18.700,BL-05ID,CTL,,,,,MOTOR/BL-05ID-CTL-IPAP01/15,,,,,,
BL-05ID-CTL-IPAPD16?,,,,,,18.700,BL-05ID,CTL,,,,,???,,,,,,
BL-05ID-CTL-STPMT16,,,,,,18.700,BL-05ID,CTL,,,,,MOTOR/BL-05ID-CTL-IPAP01/16,,,,,,
BL-05ID-CTL-IPAPD17?,,,,,,18.700,BL-05ID,CTL,,,,,???,,,,,,
BL-05ID-CTL-STPMT17,,,,,,18.700,BL-05ID,CTL,,,,,MOTOR/BL-05ID-CTL-IPAP01/17,,,,,,
BL-05ID-CTL-IPAPD18?,,,,,,18.700,BL-05ID,CTL,,,,,???,,,,,,
BL-05ID-CTL-STPMT18,,,,,,18.700,BL-05ID,CTL,,,,,MOTOR/BL-05ID-CTL-IPAP01/18,,,,,,
Pseudomotors ???,,,,,,,,,,,,,,,,,,,
BL-05ID-OPT-MNO,,,,,,18.700,BL-05ID,OPT,,TBD,,TBD,CONTROLLER/MIRROR/BL-05ID-OPT-MNO,,,,,,
,,,,,,,,,,,,,,,,,,,
,,,,,,,,,,,,,,,,,,,
BL-05ID-VAC-VGFST01,DIAGNOSTIC 2,,,,,16.525,BL-05ID,VAC,Y,TBD,BL-05ID-VAC-VGFST01,TBD,BL-05ID/VAC/BL-05ID-VAC-VGFST01,,,,,,FVS_BL.01
BL-05ID-CTL-IPAPD19?,,,,,,16.525,BL-05ID,CTL,,,,,???,,,,,,
BL-05ID-CTL-STPMT19,,,,,,16.525,BL-05ID,CTL,,Sardana,BL-05ID,Motor,MOTOR/BL-05ID-CTL-IPAP01/19,BL-05ID-CTL-STPMT19,,,,,
BL-05ID-DIA-SCRNM01,,,,,,16.525,BL-05ID,DIA,Y,Sardana,BL-05ID,Controller,CONTROLLER/OFFSET/BL-05ID-DIA-SCRNM01,,,,,,
BL-05ID-DIA-SCRNM01?,,,,,,16.525,BL-05ID,DIA,Y,TBD,BL-05ID-DIA-SCRNM01,TBD,BL-05ID/DIA/BL-05ID-DIA-SCRNM01,,,,,,
BL-05ID-DIA-CAM02,,,,,,16.525,BL-05ID,DIA,Y,Lima,BL-05ID-DIA-CAM02,Basler,BL-05ID/DIA/BL-05ID-DIA-CAM02,,,,,,
BL-05ID-DIA-CCAM02,,,,,,16.525,BL-05ID,DIA,Y,Lima,BL-05ID-DIA-CCAM02,LimaCCD,BL-05ID/DIA/BL-05ID-DIA-CCAM02,,,,,,
,,,,,,,,,,,,,,,,,,,
,,,,,,,,,,,,,,,,,,,
BL-05ID-AIR-PSW03,PNEUMATIC PANEL ?,,,,,???,BL-05ID,AIR,,,,,BL-05ID/AIR/BL-05ID-AIR-PSW03,,,,,,AIR_BL.03
BL-05ID-VAC-VGMB03,,,,,,19.300,BL-05ID,VAC,Y,GateValve,BL-05ID-VAC-VGMB03,GateValve,BL-05ID/VAC/BL-05ID-VAC-VGMB03,,,,,,VLV_BL.03
,,,,,,,,,,,,,,,,,,,
,,,,,,,,,,,,,,,,,,,
BL-05ID-VAC-VGC04,MIRROR 2,,,,,20.000,BL-05ID,VAC,Y,Tpg300,BL-05ID-VAC-VGC04,Tpg300,BL-05ID/VAC/BL-05ID-VAC-VGC04,,,,,,IM_BL.04
BL-05ID-VAC-VGFR02,,,,,,20.000,BL-05ID,VAC,Y,TBD,BL-05ID-VAC-VGFR02,TBD,BL-05ID/VAC/BL-05ID-VAC-VGFR02,,,,,,FR_BL.02
BL-05ID-VAC-IPCU05,,,,,,20.000,BL-05ID,VAC,Y,GammaSPCe,BL-05ID-VAC-IP05,GammaSPCe,BL-05ID/VAC/BL-05ID-VAC-IPCU05,,N,,,,PSSIP300_BL.04
BL-05ID-VAC-IP05,,,,,,20.000,BL-05ID,VAC,N,,,,BL-05ID/VAC/BL-05ID-VAC-IP05,,N,,,,SIP300_BL.04
BL-05ID-CTL-IPAPD20?,,,,,,20.000,BL-05ID,CTL,,,,,???,,,,,,
BL-05ID-CTL-STPMT20,,,,,,20.000,BL-05ID,CTL,,,,,MOTOR/BL-05ID-CTL-IPAP01/20,,,,,,
BL-05ID-CTL-IPAPD21?,,,,,,20.000,BL-05ID,CTL,,,,,???,,,,,,
BL-05ID-CTL-STPMT21,,,,,,20.000,BL-05ID,CTL,,,,,MOTOR/BL-05ID-CTL-IPAP01/21,,,,,,
BL-05ID-CTL-IPAPD22?,,,,,,20.000,BL-05ID,CTL,,,,,???,,,,,,
BL-05ID-CTL-STPMT22,,,,,,20.000,BL-05ID,CTL,,,,,MOTOR/BL-05ID-CTL-IPAP01/22,,,,,,
BL-05ID-CTL-IPAPD23?,,,,,,20.000,BL-05ID,CTL,,,,,???,,,,,,
BL-05ID-CTL-STPMT23,,,,,,20.000,BL-05ID,CTL,,,,,MOTOR/BL-05ID-CTL-IPAP01/23,,,,,,
BL-05ID-CTL-IPAPD24?,,,,,,20.000,BL-05ID,CTL,,,,,???,,,,,,
BL-05ID-CTL-STPMT24,,,,,,20.000,BL-05ID,CTL,,,,,MOTOR/BL-05ID-CTL-IPAP01/24,,,,,,
Pseudomotors ???,,,,,,,,,,,,,,,,,,,
BL-05ID-OPT-MIR02,,,,,,20.000,BL-05ID,OPT,Y,TBD,BL-05ID-OPT-MIR02,TBD,CONTROLLER/MIRROR/BL-05ID-OPT-MIR02,,,,,,
,,,,,,,,,,,,,,,,,,,
,,,,,,,,,,,,,,,,,,,
BL-05ID-VAC-VGMB04,,,,,,19.300,BL-05ID,VAC,Y,GateValve,BL-05ID-VAC-VGMB04,GateValve,BL-05ID/VAC/BL-05ID-VAC-VGMB04,,,,,,VLV_BL.04
,,,,,,,,,,,,,,,,,,,AIR_BL.03
,,,,,,,,,,,,,,,,,,,
,,,,,,,,,,,,,,,,,,,
BL-05ID-VAC-FULLRANGE03,PUMPING STAGE 3,,,,,22.865,BL-05ID,VAC,Y,,,,BL-05ID/VAC/BL-05ID-VAC-FULLRANGE03,,N,,,,FR_BL.03
BL-05ID-VAC-IPCU06,,,,,,22.865,BL-05ID,VAC,Y,GammaSPCe,BL-05ID-VAC-IP06,GammaSPCe,BL-05ID/VAC/BL-05ID-VAC-IPCU06,,,,,,PSSIP150_BL.01
BL-05ID-VAC-IP06,,,,,,22.865,BL-05ID,VAC,N,,,,BL-05ID/VAC/BL-05ID-VAC-IP06,,N,,,,SIP150_BL.01
BL-05ID-AIR-PSW04,,,,,,22.865,BL-05ID,AIR,Y,,,,BL-05ID/AIR/BL-05ID-AIR-PSW04,,,,,,AIR_BL.04
,,,,,,,,,,,,,,,,,,,
,,,,,,,,,,,,,,,,,,,
BL-05ID-VAC-VGC05,PUMPING STAGE 4,,,,,25.525,BL-05ID,VAC,Y,Tpg300,BL-05ID-VAC-VGC05,Tpg300,BL-05ID/VAC/BL-05ID-VAC-VGC05,,N,,,,IM_BL.05
BL-05ID-VAC-IPCU07,,,,,,25.525,BL-05ID,VAC,Y,GammaSPCe,BL-05ID-VAC-IP07,GammaSPCe,BL-05ID/VAC/BL-05ID-VAC-IPCU07,,N,,,,SIP300_BL.05
BL-05ID-VAC-IP07,,,,,,25.525,BL-05ID,VAC,N,,,,BL-05ID/VAC/BL-05ID-VAC-IP07,,N,,,,
,,,,,,,,,,,,,,,,,,,
,,,,,,,,,,,,,,,,,,,
BL-05ID-CTL-IPAPD25?,HORIZONTAL/VERTICAL SLITS,,,,,26.000,BL-05ID,CTL,,,,,???,,,,,,
BL-05ID-CTL-STPMT25,,,,,,26.000,BL-05ID,CTL,,,,,MOTOR/BL-05ID-CTL-IPAP01/25,,,,,,
BL-05ID-CTL-IPAPD26?,,,,,,26.000,BL-05ID,CTL,,,,,???,,,,,,
BL-05ID-CTL-STPMT26,,,,,,26.000,BL-05ID,CTL,,,,,MOTOR/BL-05ID-CTL-IPAP01/26,,,,,,
,,,,,,,,,,,,,,,,,,,
,,,,,,,,,,,,,,,,,,,
BL-05ID-AIR-PSW05,PNEUMATIC PANEL ?,,,,,???,BL-05ID,AIR,,,,,BL-05ID/AIR/BL-05ID-AIR-PSW05,,,,,,AIR_BL.05
BL-05ID-VAC-VGMB05,,,,,,???,BL-05ID,VAC,Y,GateValve,BL-05ID-VAC-VGMB05,GateValve,BL-05ID/VAC/BL-05ID-VAC-VGMB05,,,,,,VLV_BL.05
,,,,,,,,,,,,,,,,,,,
,,,,,,,,,,,,,,,,,,,
BL-05ID-VAC-VGFST02,MIRROR 3,,,,,27.000,BL-05ID,VAC,Y,TBD,BL-05ID-VAC-VGFST02,TBD,BL-05ID/VAC/BL-05ID-VAC-VGFST02,,,,,,FVS_BL.02
BL-05ID-VAC-VGC06,,,,,,27.000,BL-05ID,VAC,Y,Tpg300,BL-05ID-VAC-VGC06,Tpg300,BL-05ID/VAC/BL-05ID-VAC-VGC06,,,,,,IM_BL.06
BL-05ID-VAC-VGFR04,,,,,,27.000,BL-05ID,VAC,Y,TBD,BL-05ID-VAC-VGFR03,TBD,BL-05ID/VAC/BL-05ID-VAC-VGFR04,,,,,,FR_BL.05
BL-05ID-VAC-IPCU08,,,,,,27.000,BL-05ID,VAC,Y,GammaSPCe,BL-05ID-VAC-IP08,GammaSPCe,BL-05ID/VAC/BL-05ID-VAC-IPCU08,,N,,,,PSSIP300_BL.06
BL-05ID-VAC-IP08,,,,,,27.000,BL-05ID,VAC,N,,,,BL-05ID/VAC/BL-05ID-VAC-IP08,,N,,,,SIP300_BL.06
BL-05ID-CTL-IPAPD27?,,,,,,27.000,BL-05ID,CTL,,,,,???,,,,,,
BL-05ID-CTL-STPMT27,,,,,,27.000,BL-05ID,CTL,,,,,MOTOR/BL-05ID-CTL-IPAP01/27,,,,,,
BL-05ID-CTL-IPAPD28?,,,,,,27.000,BL-05ID,CTL,,,,,???,,,,,,
BL-05ID-CTL-STPMT28,,,,,,27.000,BL-05ID,CTL,,,,,MOTOR/BL-05ID-CTL-IPAP01/28,,,,,,
BL-05ID-CTL-IPAPD29?,,,,,,27.000,BL-05ID,CTL,,,,,???,,,,,,
BL-05ID-CTL-STPMT29,,,,,,27.000,BL-05ID,CTL,,,,,MOTOR/BL-05ID-CTL-IPAP01/29,,,,,,
BL-05ID-CTL-IPAPD30?,,,,,,27.000,BL-05ID,CTL,,,,,???,,,,,,
BL-05ID-CTL-STPMT30,,,,,,27.000,BL-05ID,CTL,,,,,MOTOR/BL-05ID-CTL-IPAP01/30,,,,,,
BL-05ID-CTL-IPAPD31?,,,,,,27.000,BL-05ID,CTL,,,,,???,,,,,,
BL-05ID-CTL-STPMT31,,,,,,27.000,BL-05ID,CTL,,,,,MOTOR/BL-05ID-CTL-IPAP01/31,,,,,,
Pseudomotors ???,,,,,,,,,,,,,,,,,,,
BL-05ID-OPT-MIR03,,,,,,27.000,BL-05ID,OPT,Y,TBD,BL-05ID-OPT-MIR03,TBD,CONTROLLER/MIRROR/BL-05ID-OPT-MIR03,,,,,,
,,,,,,,,,,,,,,,,,,,
,,,,,,,,,,,,,,,,,,,
BL-05ID-AIR-PSW05,PNEUMATIC PANEL ?,,,,,???,BL-05ID,AIR,,,,,BL-05ID/AIR/BL-05ID-AIR-PSW05,,,,,,AIR_BL.05
BL-05ID-VAC-VGMB06,,,,,,???,BL-05ID,VAC,Y,GateValve,BL-05ID-VAC-VGMB06,GateValve,BL-05ID/VAC/BL-05ID-VAC-VGMB06,,,,,,VLV_BL.06
,,,,,,,,,,,,,,,,,,,
,,,,,,,,,,,,,,,,,,,
BL-05ID-VAC-VGC07,XAS,,,,,28.500,BL-05ID,VAC,Y,Tpg300,BL-05ID-VAC-VGC07,Tpg300,BL-05ID/VAC/BL-05ID-VAC-VGC07,,,,,,IM_BL.07
BL-05ID-CTL-IPAPD32?,,,,,,28.500,BL-05ID,CTL,,,,,???,,,,,,
BL-05ID-CTL-STPMT32,,,,,,28.500,BL-05ID,CTL,,,,,MOTOR/BL-05ID-CTL-IPAP01/32,,,,,,
BL-05ID-CTL-IPAPD33?,,,,,,28.500,BL-05ID,CTL,,,,,???,,,,,,
BL-05ID-CTL-STPMT33,,,,,,28.500,BL-05ID,CTL,,,,,MOTOR/BL-05ID-CTL-IPAP01/33,,,,,,
BL-05ID-CTL-IPAPD34?,,,,,,28.500,BL-05ID,CTL,,,,,???,,,,,,
BL-05ID-CTL-STPMT34,,,,,,28.500,BL-05ID,CTL,,,,,MOTOR/BL-05ID-CTL-IPAP01/34,,,,,,
BL-05ID-CTL-IPAPD35?,,,,,,28.500,BL-05ID,CTL,,,,,???,,,,,,
BL-05ID-CTL-STPMT35,,,,,,28.500,BL-05ID,CTL,,,,,MOTOR/BL-05ID-CTL-IPAP01/35,,,,,,
BL-05ID-CTL-IPAPD36?,,,,,,28.500,BL-05ID,CTL,,,,,???,,,,,,
BL-05ID-CTL-STPMT36,,,,,,28.500,BL-05ID,CTL,,,,,MOTOR/BL-05ID-CTL-IPAP01/36,,,,,,